Iteration	Surname	Forename	Vote
1	VANDERVIS	Lee	9,305.000000000	
1	HAWKINS	Aaron	8,624.000000000	
1	WHILEY	Andrew	5,116.000000000	
1	GAREY	Christine	4,628.000000000	
1	O'MALLEY	Jim	4,437.000000000	
1	RADICH	Jules	3,784.000000000	
1	HOULAHAN	Carmen	1,553.000000000	
1	BARLIN	Bob	1,266.000000000	
1	ELDER	Rachel	1,225.000000000	
1	MAYHEM-BULLOCK	Mandy	693.000000000	
1	CAMPBELL	Finn	463.000000000	
1	BARBOUR-EVANS	Scout	368.000000000	
1	SEAGER	Richard	306.000000000	
1	MONCRIEF-SPITTLE	Malcolm	242.000000000	
2	VANDERVIS	Lee	9,370.000000000	
2	HAWKINS	Aaron	8,628.000000000	
2	WHILEY	Andrew	5,135.000000000	
2	GAREY	Christine	4,638.000000000	
2	O'MALLEY	Jim	4,446.000000000	
2	RADICH	Jules	3,802.000000000	
2	HOULAHAN	Carmen	1,577.000000000	
2	BARLIN	Bob	1,298.000000000	
2	ELDER	Rachel	1,229.000000000	
2	MAYHEM-BULLOCK	Mandy	702.000000000	
2	CAMPBELL	Finn	465.000000000	
2	BARBOUR-EVANS	Scout	370.000000000	
2	SEAGER	Richard	310.000000000	
2	MONCRIEF-SPITTLE	Malcolm	0.000000000	
3	VANDERVIS	Lee	9,386.000000000	
3	HAWKINS	Aaron	8,700.000000000	
3	WHILEY	Andrew	5,161.000000000	
3	GAREY	Christine	4,662.000000000	
3	O'MALLEY	Jim	4,469.000000000	
3	RADICH	Jules	3,824.000000000	
3	HOULAHAN	Carmen	1,610.000000000	
3	BARLIN	Bob	1,314.000000000	
3	ELDER	Rachel	1,251.000000000	
3	MAYHEM-BULLOCK	Mandy	709.000000000	
3	CAMPBELL	Finn	477.000000000	
3	BARBOUR-EVANS	Scout	384.000000000	
3	MONCRIEF-SPITTLE	Malcolm	0.000000000	
3	SEAGER	Richard	0.000000000	
4	VANDERVIS	Lee	9,401.000000000	
4	HAWKINS	Aaron	8,779.000000000	
4	WHILEY	Andrew	5,171.000000000	
4	GAREY	Christine	4,704.000000000	
4	O'MALLEY	Jim	4,486.000000000	
4	RADICH	Jules	3,832.000000000	
4	HOULAHAN	Carmen	1,649.000000000	
4	BARLIN	Bob	1,324.000000000	
4	ELDER	Rachel	1,278.000000000	
4	MAYHEM-BULLOCK	Mandy	749.000000000	
4	CAMPBELL	Finn	534.000000000	
4	BARBOUR-EVANS	Scout	0.000000000	
4	MONCRIEF-SPITTLE	Malcolm	0.000000000	
4	SEAGER	Richard	0.000000000	
5	VANDERVIS	Lee	9,427.000000000	
5	HAWKINS	Aaron	8,932.000000000	
5	WHILEY	Andrew	5,197.000000000	
5	GAREY	Christine	4,745.000000000	
5	O'MALLEY	Jim	4,522.000000000	
5	RADICH	Jules	3,860.000000000	
5	HOULAHAN	Carmen	1,707.000000000	
5	BARLIN	Bob	1,346.000000000	
5	ELDER	Rachel	1,310.000000000	
5	MAYHEM-BULLOCK	Mandy	791.000000000	
5	BARBOUR-EVANS	Scout	0.000000000	
5	CAMPBELL	Finn	0.000000000	
5	MONCRIEF-SPITTLE	Malcolm	0.000000000	
5	SEAGER	Richard	0.000000000	
6	VANDERVIS	Lee	9,485.000000000	
6	HAWKINS	Aaron	9,116.000000000	
6	WHILEY	Andrew	5,235.000000000	
6	GAREY	Christine	4,807.000000000	
6	O'MALLEY	Jim	4,594.000000000	
6	RADICH	Jules	3,885.000000000	
6	HOULAHAN	Carmen	1,843.000000000	
6	ELDER	Rachel	1,372.000000000	
6	BARLIN	Bob	1,364.000000000	
6	BARBOUR-EVANS	Scout	0.000000000	
6	CAMPBELL	Finn	0.000000000	
6	MAYHEM-BULLOCK	Mandy	0.000000000	
6	MONCRIEF-SPITTLE	Malcolm	0.000000000	
6	SEAGER	Richard	0.000000000	
7	VANDERVIS	Lee	9,632.000000000	
7	HAWKINS	Aaron	9,225.000000000	
7	WHILEY	Andrew	5,380.000000000	
7	GAREY	Christine	4,982.000000000	
7	O'MALLEY	Jim	4,776.000000000	
7	RADICH	Jules	4,052.000000000	
7	HOULAHAN	Carmen	2,004.000000000	
7	ELDER	Rachel	1,472.000000000	
7	BARBOUR-EVANS	Scout	0.000000000	
7	BARLIN	Bob	0.000000000	
7	CAMPBELL	Finn	0.000000000	
7	MAYHEM-BULLOCK	Mandy	0.000000000	
7	MONCRIEF-SPITTLE	Malcolm	0.000000000	
7	SEAGER	Richard	0.000000000	
8	VANDERVIS	Lee	9,741.000000000	
8	HAWKINS	Aaron	9,454.000000000	
8	WHILEY	Andrew	5,522.000000000	
8	GAREY	Christine	5,296.000000000	
8	O'MALLEY	Jim	4,929.000000000	
8	RADICH	Jules	4,137.000000000	
8	HOULAHAN	Carmen	2,179.000000000	
8	BARBOUR-EVANS	Scout	0.000000000	
8	BARLIN	Bob	0.000000000	
8	CAMPBELL	Finn	0.000000000	
8	ELDER	Rachel	0.000000000	
8	MAYHEM-BULLOCK	Mandy	0.000000000	
8	MONCRIEF-SPITTLE	Malcolm	0.000000000	
8	SEAGER	Richard	0.000000000	
9	VANDERVIS	Lee	9,962.000000000	
9	HAWKINS	Aaron	9,690.000000000	
9	WHILEY	Andrew	5,815.000000000	
9	GAREY	Christine	5,664.000000000	
9	O'MALLEY	Jim	5,226.000000000	
9	RADICH	Jules	4,335.000000000	
9	BARBOUR-EVANS	Scout	0.000000000	
9	BARLIN	Bob	0.000000000	
9	CAMPBELL	Finn	0.000000000	
9	ELDER	Rachel	0.000000000	
9	HOULAHAN	Carmen	0.000000000	
9	MAYHEM-BULLOCK	Mandy	0.000000000	
9	MONCRIEF-SPITTLE	Malcolm	0.000000000	
9	SEAGER	Richard	0.000000000	
10	VANDERVIS	Lee	10,710.000000000	
10	HAWKINS	Aaron	10,019.000000000	
10	WHILEY	Andrew	6,790.000000000	
10	GAREY	Christine	6,206.000000000	
10	O'MALLEY	Jim	5,915.000000000	
10	BARBOUR-EVANS	Scout	0.000000000	
10	BARLIN	Bob	0.000000000	
10	CAMPBELL	Finn	0.000000000	
10	ELDER	Rachel	0.000000000	
10	HOULAHAN	Carmen	0.000000000	
10	MAYHEM-BULLOCK	Mandy	0.000000000	
10	MONCRIEF-SPITTLE	Malcolm	0.000000000	
10	RADICH	Jules	0.000000000	
10	SEAGER	Richard	0.000000000	
11	VANDERVIS	Lee	11,429.000000000	
11	HAWKINS	Aaron	11,144.000000000	
11	WHILEY	Andrew	8,189.000000000	
11	GAREY	Christine	7,417.000000000	
11	BARBOUR-EVANS	Scout	0.000000000	
11	BARLIN	Bob	0.000000000	
11	CAMPBELL	Finn	0.000000000	
11	ELDER	Rachel	0.000000000	
11	HOULAHAN	Carmen	0.000000000	
11	MAYHEM-BULLOCK	Mandy	0.000000000	
11	MONCRIEF-SPITTLE	Malcolm	0.000000000	
11	O'MALLEY	Jim	0.000000000	
11	RADICH	Jules	0.000000000	
11	SEAGER	Richard	0.000000000	
12	HAWKINS	Aaron	13,700.000000000	
12	VANDERVIS	Lee	12,039.000000000	
12	WHILEY	Andrew	10,158.000000000	
12	BARBOUR-EVANS	Scout	0.000000000	
12	BARLIN	Bob	0.000000000	
12	CAMPBELL	Finn	0.000000000	
12	ELDER	Rachel	0.000000000	
12	GAREY	Christine	0.000000000	
12	HOULAHAN	Carmen	0.000000000	
12	MAYHEM-BULLOCK	Mandy	0.000000000	
12	MONCRIEF-SPITTLE	Malcolm	0.000000000	
12	O'MALLEY	Jim	0.000000000	
12	RADICH	Jules	0.000000000	
12	SEAGER	Richard	0.000000000	
13	HAWKINS	Aaron	16,492.000000000	
13	VANDERVIS	Lee	14,097.000000000	
13	BARBOUR-EVANS	Scout	0.000000000	
13	BARLIN	Bob	0.000000000	
13	CAMPBELL	Finn	0.000000000	
13	ELDER	Rachel	0.000000000	
13	GAREY	Christine	0.000000000	
13	HOULAHAN	Carmen	0.000000000	
13	MAYHEM-BULLOCK	Mandy	0.000000000	
13	MONCRIEF-SPITTLE	Malcolm	0.000000000	
13	O'MALLEY	Jim	0.000000000	
13	RADICH	Jules	0.000000000	
13	SEAGER	Richard	0.000000000	
13	WHILEY	Andrew	0.000000000	
